━━━━━━━━━━━━━━━━━━━━━━━━━━━━━━━━━━━━━━━━━━━━━━━━━━━━━━━━━━━━━━━━━━━━━━━━━━━━━━━
 Language            Files        Lines         Code     Comments       Blanks
━━━━━━━━━━━━━━━━━━━━━━━━━━━━━━━━━━━━━━━━━━━━━━━━━━━━━━━━━━━━━━━━━━━━━━━━━━━━━━━
 JSON                    4         2484         2484            0            0
───────────────────────────────────────────────────────────────────────────────
 ./sbom.json                       2455         2455            0            0
 |heck_results/bomber.json           23           23            0            0
 |ck_results/osv_repo.json            3            3            0            0
 |ck_results/osv_sbom.json            3            3            0            0
───────────────────────────────────────────────────────────────────────────────
 ReStructuredText        1           69           47            0           22
───────────────────────────────────────────────────────────────────────────────
 ./SECURITY.rst                      69           47            0           22
───────────────────────────────────────────────────────────────────────────────
 Markdown                3          190            0          124           66
───────────────────────────────────────────────────────────────────────────────
 ./README.md                        112            0           72           40
 |n/scorecard/scorecard.md           17            0           13            4
 ./SECURITY.md                       61            0           39           22
───────────────────────────────────────────────────────────────────────────────
 Plain Text             16          343            0          296           47
───────────────────────────────────────────────────────────────────────────────
 ./security.txt                      34            0           27            7
 ./dataset/placeholder.txt            0            0            0            0
 ./res/placeholder.txt                0            0            0            0
 ./dep/placeholder.txt                0            0            0            0
 |entation/placeholder.txt            0            0            0            0
 |corecard/placeholder.txt            0            0            0            0
 |documentation/robots.txt           65            0           59            6
 ./structure.txt                    126            0          125            1
 ./content_summary.txt               14            0           14            0
 ./example/placeholder.txt            0            0            0            0
 ./src/placeholder.txt                0            0            0            0
 ./content_long_list.txt              0            0            0            0
 ./humans.txt                        39            0           12           27
 ./test/placeholder.txt               0            0            0            0
 ./robots.txt                        65            0           59            6
 ./tools/placeholder.txt              0            0            0            0
───────────────────────────────────────────────────────────────────────────────
 HTML                    1           35           22            0           13
 |- CSS                  1           49           49            0            0
 (Total)                             84           71            0           13
───────────────────────────────────────────────────────────────────────────────
 ./repo_check_results/bomber.html
 |- HTML                             35           22            0           13
 |- CSS                              49           49            0            0
 ./repo_check_results/bomber.html           35           22            0           13
━━━━━━━━━━━━━━━━━━━━━━━━━━━━━━━━━━━━━━━━━━━━━━━━━━━━━━━━━━━━━━━━━━━━━━━━━━━━━━━
 Total                  25         3170         2602          420          148
━━━━━━━━━━━━━━━━━━━━━━━━━━━━━━━━━━━━━━━━━━━━━━━━━━━━━━━━━━━━━━━━━━━━━━━━━━━━━━━
